Talin Loop Paper Data Analysis
…
Data processing pipeline

Code

tar_visnetwork(callr_arguments = list(show = FALSE))

Plots

Asp125 and Glu126 missing -> sequence shifted by 2 afterwards.

Code

tar_read(sequence)

# A tibble: 398 × 4
       i res      PI PI_window_7
   <int> <chr> <dbl>       <dbl>
 1     1 M      5.27        5.27
 2     2 V      5.49        5.27
 3     3 A      5.57        5.27
 4     4 L      5.52        8.50
 5     5 S      5.24        8.72
 6     6 L      5.52        8.80
 7     7 K      8.75        8.75
 8     8 I      5.52        8.47
 9     9 S      5.24        8.75
10    10 I      5.52        8.75
# … with 388 more rows
…
Code

anti_join(
  expand_grid(frame = 0:200, i = 1:197),
  interacting |> 
    filter(run == 2, angle == 204) |> 
    distinct(frame, i)
  )

# A tibble: 394 × 2
   frame     i
   <int> <int>
 1   143     1
 2   143     2
 3   143     3
 4   143     4
 5   143     5
 6   143     6
 7   143     7
 8   143     8
 9   143     9
10   143    10
# … with 384 more rows
…
